{
  "ok_pattern": {
    "request": {
      "cleaning_id": 1,
      "excluded_answers_list": {
        "5": [],
        "6": [
          "aaaa",
          "test"
        ]
      },
      "leave_flags": "true",
      "basic_check": {
        "customize_standards": true,
        "monitor_duplication": {
          "active": false,
          "user_agent": true,
          "ip_address": true,
          "sex": true,
          "age": true,
          "area": true
        },
        "answer_speed": {
          "active": false,
          "cut_ratio": 1
        }
      }
    },
    "response": {
    }
  }
}